"id","name","grade","date","debt"
"1","Annie Dixon","85","14-Jul-2016","$216.53"
"2","Beverly Payne","84","10-Aug-2016","$974.87"
"3","Beverly Meyer","74","19-Dec-2016","$301.27"
"4","Nancy Thompson","87","11-Nov-2017","$931.29"
"5","Randy Ortiz","104","14-Feb-2016","$523.42"
"6","Teresa Willis","82","13-Nov-2017","$147.31"
"7","Ann Russell","92","20-Jan-2016","$653.88"
"8","Benjamin Bishop","81","27-May-2017","$471.38"
"9","Gloria James","100","27-Feb-2016","$568.27"
"10","Gary Nguyen","88","22-Jul-2016","$71.65"
"11","David Sullivan","94","13-Oct-2017","$810.78"
"12","Sarah Hart","69","19-Oct-2017","$755.95"
"13","Samuel Smith","92","20-Aug-2016","$55.60"
"14","Jack Lee","81","17-Apr-2016","$34.92"
"15","Marie Henry","93","03-Sep-2017","$872.69"
"16","Bruce Perry","89","01-Nov-2016","$517.43"
"17","Henry Carter","98","04-Aug-2016","$831.26"
"18","Sean Lane","76","13-Nov-2016","$53.64"
"19","Tammy Butler","92","24-Feb-2016","$74.43"
"20","Scott Chavez","92","25-Jul-2016","$536.71"
"21","Stephanie Powell","66","16-Apr-2017","$894.03"
"22","Judith Parker","104","18-Nov-2017","$340.30"
"23","Cynthia Harvey","81","15-Jan-2017","$681.60"
"24","Ruby Fields","92","10-Aug-2016","$24.80"
"25","Harry Greene","100","25-Oct-2016","$97.66"
"26","Jack Romero","75","25-Mar-2017","$399.67"
"27","Willie Brooks","103","20-Jul-2016","$170.61"
"28","Kathleen Hudson","76","12-Feb-2017","$691.25"
"29","Brenda Gonzales","80","05-Jul-2017","$887.20"
"30","Emily Ruiz","103","30-Mar-2016","$312.60"
"31","Roy Marshall","92","10-Jun-2016","$270.04"
"32","Timothy Armstrong","97","07-Oct-2016","$973.53"
"33","Cynthia Hawkins","80","04-Jul-2017","$722.93"
"34","Raymond Bradley","78","23-Nov-2016","$915.86"
"35","Raymond Morgan","90","13-Jan-2016","$277.57"
"36","Philip Austin","89","02-Mar-2017","$446.51"
"37","Bobby Morrison","83","03-Mar-2017","$402.25"
"38","Wanda Butler","85","27-Oct-2017","$83.72"
"39","Margaret Watkins","72","28-Feb-2017","$605.64"
"40","Timothy Ramos","99","17-Sep-2017","$414.01"
"41","Betty Ray","94","14-Aug-2016","$797.20"
"42","Eugene Fox","96","07-Mar-2017","$548.69"
"43","Bobby Marshall","75","17-Aug-2016","$224.51"
"44","Brenda Meyer","92","17-Mar-2016","$308.14"
"45","Barbara Payne","79","06-Oct-2017","$986.62"
"46","Joshua Bennett","91","14-Jan-2016","$724.13"
"47","Sara Chavez","81","27-Nov-2017","$15.45"
"48","Susan Rogers","83","19-Mar-2017","$615.62"
"49","Sean Little","62","02-Oct-2016","$93.84"
"50","Victor Robinson","71","19-Mar-2016","$271.79"
"51","Martha Hawkins","79","21-Sep-2017","$886.88"
"52","Donald Wheeler","91","25-Aug-2016","$972.21"
"53","Howard Fowler","90","05-Dec-2017","$849.25"
"54","Katherine Weaver","78","01-Jun-2017","$625.22"
"55","Jeffrey Mendoza","84","28-Jan-2017","$374.14"
"56","George Frazier","84","29-Nov-2017","$442.64"
"57","Phillip Schmidt","88","28-Feb-2016","$966.82"
"58","George Ramirez","82","10-Jan-2017","$92.50"
"59","Jessica Palmer","77","15-Jan-2017","$815.69"
"60","Kelly Cox","102","07-Oct-2017","$693.34"
"61","Anne Dean","92","02-Jul-2016","$114.12"
"62","Bonnie Stewart","83","05-Oct-2016","$12.37"
"63","Dorothy Ruiz","89","02-May-2016","$502.05"
"64","Nicholas Tucker","75","24-Jan-2016","$32.15"
"65","Janet Flores","72","22-Mar-2017","$218.89"
"66","Raymond Hamilton","86","18-Apr-2017","$204.83"
"67","Matthew Fisher","79","19-Nov-2017","$403.06"
"68","Andrew Lawrence","87","19-Sep-2017","$924.08"
"69","Pamela Riley","102","01-Feb-2017","$332.79"
"70","Andrew Reynolds","78","30-Nov-2017","$299.15"
"71","Elizabeth Simmons","70","01-Aug-2017","$744.16"
"72","Earl Perkins","90","31-Oct-2017","$984.89"
"73","Brian Brown","79","26-Mar-2017","$984.35"
"74","Steve Bishop","74","25-Dec-2017","$692.27"
"75","Alice Myers","100","10-Jan-2016","$582.07"
"76","Johnny Brooks","75","18-Aug-2016","$90.40"
"77","Carlos Cooper","88","16-Jul-2017","$115.20"
"78","Kathryn Diaz","79","30-Mar-2017","$791.06"
"79","Wanda Henry","73","06-Jul-2016","$411.42"
"80","David Ray","74","27-Oct-2017","$992.80"
"81","Joan Stevens","77","12-Jul-2016","$703.52"
"82","Rachel Wright","80","26-Nov-2017","$380.69"
"83","Amy Taylor","92","28-Feb-2017","$954.99"
"84","Lisa Ortiz","96","17-Sep-2016","$768.97"
"85","Martha Kelly","77","12-Nov-2016","$787.66"
"86","Philip Moreno","90","10-Apr-2017","$871.89"
"87","Maria Mcdonald","80","23-Dec-2016","$890.43"
"88","Sandra Powell","110","17-Jul-2016","$323.63"
"89","Stephen Fuller","110","21-Dec-2016","$932.85"
"90","Shawn Flores","91","25-May-2016","$122.06"
"91","Julia Kelley","82","01-Oct-2016","$323.55"
"92","Harold Mitchell","103","03-Sep-2016","$552.11"
"93","Clarence Simmons","73","26-Feb-2016","$40.70"
"94","Jesse Ray","88","10-Oct-2016","$182.80"
"95","Terry Sims","80","14-Sep-2016","$188.26"
"96","Melissa Gray","84","06-Oct-2016","$885.10"
"97","Roy Grant","95","19-Aug-2017","$347.97"
"98","Catherine Jacobs","74","30-May-2017","$757.85"
"99","Laura Peterson","80","31-Jul-2017","$608.25"
"100","Andrew Pierce","95","06-Aug-2016","$306.96"
